# Exported from Wings 3D 1.2
mtllib plain_door5_up.mtl
o cube1
#8 vertices, 6 faces
v -5.00000000 3.00000000 0.30000000
v -5.00000000 6.00000000 0.30000000
v 5.00000000 6.00000000 0.30000000
v 5.00000000 3.00000000 0.30000000
v -5.00000000 3.00000000 -0.30000000
v -5.00000000 6.00000000 -0.30000000
v 5.00000000 6.00000000 -0.30000000
v 5.00000000 3.00000000 -0.30000000
vt 0.0000000e+0 0.0000000e+0
vt 0.0000000e+0 0.41000000
vt 0.0000000e+0 0.59000000
vt 0.0000000e+0 0.59000000
vt 0.0000000e+0 1.00000000
vt 0.0000000e+0 1.00000000
vt 6.6613381e-16 0.41000000
vt 8.8817842e-16 0.0000000e+0
vt 0.40000000 1.00000000
vt 0.40000000 0.0000000e+0
vt 0.40000000 1.00000000
vt 0.40000000 0.0000000e+0
vt 0.60000000 1.00000000
vt 0.60000000 0.0000000e+0
vt 0.60000000 0.0000000e+0
vt 5.00000000 1.00000000
vt 5.00000000 2.2204460e-16
vt 5.00000000 5.6621374e-16
vt 5.00000000 0.41000000
vt 5.00000000 0.41000000
vt 5.00000000 0.59000000
vt 5.00000000 0.59000000
vt 5.00000000 1.00000000
vn -0.57735027 -0.57735027 0.57735027
vn -0.57735027 0.57735027 0.57735027
vn 0.57735027 0.57735027 0.57735027
vn 0.57735027 -0.57735027 0.57735027
vn -0.57735027 -0.57735027 -0.57735027
vn -0.57735027 0.57735027 -0.57735027
vn 0.57735027 0.57735027 -0.57735027
vn 0.57735027 -0.57735027 -0.57735027
g cube1_cube1_auv
usemtl cube1_auv
s 1
f 1/8/1 4/18/4 3/16/3 2/5/2
f 1/19/1 5/21/5 8/4/8 4/7/4
f 2/13/2 6/9/6 5/12/5 1/15/1
f 3/20/3 7/22/7 6/3/6 2/2/2
f 4/10/4 8/14/8 7/13/7 3/11/3
f 6/23/6 7/6/7 8/1/8 5/17/5
