# Exported from Wings 3D 1.0.2
mtllib slope_high.mtl
o cube1
#16 vertices, 15 faces
v -5.00000000 4.00000000 3.00000000
v -5.00000000 8.00000000 3.00000000
v 5.00000000 8.00000000 3.00000000
v 5.00000000 4.00000000 3.00000000
v -5.00000000 4.00000000 -5.00000000
v 5.00000000 4.00000000 -5.00000000
v -5.00000000 8.00000000 5.00000000
v -5.00000000 4.00000000 5.00000000
v 5.00000000 4.00000000 5.00000000
v 5.00000000 8.00000000 5.00000000
v -5.00000000 0.0000000e+0 5.00000000
v -5.00000000 0.0000000e+0 3.00000000
v -5.00000000 0.0000000e+0 -5.00000000
v 5.00000000 0.0000000e+0 -5.00000000
v 5.00000000 0.0000000e+0 3.00000000
v 5.00000000 0.0000000e+0 5.00000000
vt -2.2204460e-16 1.00000000
vt -1.1102230e-16 0.30000000
vt -1.1102230e-16 0.70000000
vt -2.7755576e-17 1.9217694e-16
vt 0.0000000e+0 1.0000000e-1
vt 0.0000000e+0 0.10000000
vt 0.0000000e+0 0.50000000
vt 5.5511151e-17 0.10000000
vt 1.4957076e-16 0.50000000
vt 2.0508191e-16 0.50000000
vt 2.0508191e-16 0.90000000
vt 2.2204460e-16 0.20000000
vt 3.4694470e-16 0.18274400
vt 4.4408921e-16 5.5511151e-17
vt 5.2349764e-16 0.90000000
vt 7.1470607e-16 1.00000000
vt 0.20000000 0.10000000
vt 0.20000000 0.50000000
vt 0.20000000 0.90000000
vt 0.80000000 1.0000000e-1
vt 0.80000000 0.50000000
vt 0.80000000 0.90000000
vt 1.00000000 0.20000000
vt 1.00000000 1.00000000
vt 1.00000000 1.0000000e-1
vt 1.00000000 5.5511151e-17
vt 1.00000000 1.0000000e-1
vt 1.00000000 0.30000000
vt 1.00000000 0.50000000
vt 1.00000000 0.50000000
vt 1.00000000 0.70000000
vt 1.00000000 6.5379417e-16
vt 1.00000000 0.18274400
vt 1.00000000 0.50000000
vt 1.00000000 0.90000000
vt 1.00000000 1.00000000
vn -1.00000000 0.0000000e+0 0.0000000e+0
vn -0.71662706 0.67879889 -0.16024268
vn 0.71662706 0.67879889 -0.16024268
vn 1.00000000 0.0000000e+0 0.0000000e+0
vn -0.76169464 0.34064020 -0.55116742
vn 0.76169464 0.34064020 -0.55116742
vn -0.57735027 0.57735027 0.57735027
vn -0.70710678 0.0000000e+0 0.70710678
vn 0.70710678 0.0000000e+0 0.70710678
vn 0.57735027 0.57735027 0.57735027
vn -0.57735027 -0.57735027 0.57735027
vn -0.70710678 -0.70710678 0.0000000e+0
vn -0.57735027 -0.57735027 -0.57735027
vn 0.57735027 -0.57735027 -0.57735027
vn 0.70710678 -0.70710678 0.0000000e+0
vn 0.57735027 -0.57735027 0.57735027
g cube1_cube1_auv
usemtl cube1_auv
f 1/21/1 8/30/8 7/35/7 2/22/2
f 1/21/1 12/20/12 11/27/11 8/30/8
f 2/22/2 5/7/5 1/21/1
f 2/13/2 7/4/7 10/26/10 3/33/3
f 3/33/3 6/36/6 5/16/5 2/13/2
f 3/19/3 10/11/10 9/10/9 4/18/4
f 4/18/4 6/34/6 3/19/3
f 4/18/4 15/17/15 14/27/14 6/34/6
f 5/7/5 13/5/13 12/20/12 1/21/1
f 6/3/6 14/2/14 13/28/13 5/31/5
f 8/9/8 9/29/9 10/35/10 7/15/7
f 8/9/8 11/6/11 16/25/16 9/29/9
f 9/10/9 16/8/16 15/17/15 4/18/4
f 12/23/12 15/12/15 16/14/16 11/32/11
f 13/24/13 14/1/14 15/12/15 12/23/12
