# Exported from Wings 3D 1.2
mtllib PlainDoor3_down.mtl
o cube1
#8 vertices, 6 faces
v -3.00000000 0.0000000e+0 0.30000000
v -3.00000000 3.00000000 0.30000000
v 3.00000000 3.00000000 0.30000000
v 3.00000000 0.0000000e+0 0.30000000
v -3.00000000 0.0000000e+0 -0.30000000
v -3.00000000 3.00000000 -0.30000000
v 3.00000000 3.00000000 -0.30000000
v 3.00000000 0.0000000e+0 -0.30000000
vt 0.0000000e+0 6.6613381e-17
vt 0.0000000e+0 0.45000000
vt 0.0000000e+0 0.55000000
vt 0.0000000e+0 1.00000000
vt 2.2204460e-16 0.45000000
vt 4.4408921e-16 1.00000000
vt 5.5511151e-16 1.1102230e-16
vt 0.40000000 1.00000000
vt 0.40000000 0.0000000e+0
vt 0.40000000 1.00000000
vt 0.40000000 0.0000000e+0
vt 0.60000000 1.00000000
vt 0.60000000 1.00000000
vt 0.60000000 0.0000000e+0
vt 0.60000000 1.3322676e-16
vt 3.00000000 0.0000000e+0
vt 3.00000000 1.3322676e-15
vt 3.00000000 0.45000000
vt 3.00000000 0.45000000
vt 3.00000000 0.55000000
vt 3.00000000 0.55000000
vt 3.00000000 1.00000000
vt 3.00000000 1.00000000
vn -0.57735027 -0.57735027 0.57735027
vn -0.57735027 0.57735027 0.57735027
vn 0.57735027 0.57735027 0.57735027
vn 0.57735027 -0.57735027 0.57735027
vn -0.57735027 -0.57735027 -0.57735027
vn -0.57735027 0.57735027 -0.57735027
vn 0.57735027 0.57735027 -0.57735027
vn 0.57735027 -0.57735027 -0.57735027
g cube1_cube1_auv
usemtl cube1_auv
s 1
f 1/1/1 4/16/4 3/22/3 2/6/2
f 1/18/1 5/20/5 8/3/8 4/5/4
f 2/13/2 6/8/6 5/11/5 1/15/1
f 3/19/3 7/21/7 6/3/6 2/2/2
f 4/9/4 8/14/8 7/12/7 3/10/3
f 6/23/6 7/4/7 8/7/8 5/17/5
