mtllib geometry.mtl
o ceiling
v 5.00 8.00 5.00
v -5.00 8.00 5.00
v -5.00 8.00 -5.00
v 5.00 8.00 -5.00
vt 1.00 1.00
vt 0.00 1.00
vt 0.00 0.00
vt 1.00 0.00
g ceiling
usemtl geometry
f 1/1/0 2/2/0 3/3/0
f 3/3/0 4/4/0 1/1/0
