# Exported from Wings 3D 1.0.2
mtllib crate.mtl
o cube1
#8 vertices, 6 faces
v -1.00000000 -1.2244787e-3 1.00000000
v -1.00000000 1.99877552 1.00000000
v 1.00000000 1.99877552 1.00000000
v 1.00000000 -1.2244787e-3 1.00000000
v -1.00000000 -1.2244787e-3 -1.00000000
v -1.00000000 1.99877552 -1.00000000
v 1.00000000 1.99877552 -1.00000000
v 1.00000000 -1.2244787e-3 -1.00000000
vt 0.0000000e+0 0.0000000e+0
vt 0.0000000e+0 1.6653345e-16
vt 0.0000000e+0 2.2204460e-16
vt 0.0000000e+0 1.00000000
vt 1.1102230e-16 2.4980018e-16
vt 2.2204460e-16 0.0000000e+0
vt 2.2204460e-16 1.00000000
vt 3.3306691e-16 1.00000000
vt 4.4408921e-16 1.00000000
vt 1.00000000 0.0000000e+0
vt 1.00000000 1.00000000
vt 1.00000000 0.0000000e+0
vt 1.00000000 1.00000000
vt 1.00000000 0.0000000e+0
vt 1.00000000 1.6653345e-16
vt 1.00000000 2.2204460e-16
vt 1.00000000 1.00000000
vn -0.57735027 -0.57735027 0.57735027
vn -0.57735027 0.57735027 0.57735027
vn 0.57735027 0.57735027 0.57735027
vn 0.57735027 -0.57735027 0.57735027
vn -0.57735027 -0.57735027 -0.57735027
vn -0.57735027 0.57735027 -0.57735027
vn 0.57735027 0.57735027 -0.57735027
vn 0.57735027 -0.57735027 -0.57735027
g cube1_cube1_auv
usemtl cube1_auv
f 1/5/1 4/12/4 3/13/3 2/9/2
f 1/14/1 5/17/5 8/7/8 4/6/4
f 2/11/2 6/4/6 5/2/5 1/10/1
f 3/15/3 7/17/7 6/4/6 2/1/2
f 4/3/4 8/14/8 7/17/7 3/8/3
f 6/17/6 7/4/7 8/3/8 5/16/5
