# Exported from Wings 3D 1.0.2
mtllib geometry.mtl
o cube1
#12 vertices, 10 faces
v -1.00000000 0.0000000e+0 0.25000000
v 1.00000000 0.0000000e+0 0.25000000
v -1.00000000 0.0000000e+0 -0.25000000
v 1.00000000 0.0000000e+0 -0.25000000
v -1.00000000 1.90000000 0.25000000
v -1.00000000 2.00000000 0.15000000
v 1.00000000 1.90000000 0.25000000
v 1.00000000 2.00000000 0.15000000
v -1.00000000 2.00000000 -0.15000000
v -1.00000000 1.90000000 -0.25000000
v 1.00000000 2.00000000 -0.15000000
v 1.00000000 1.90000000 -0.25000000
vt 0.0000000e+0 0.0000000e+0
vt 0.0000000e+0 0.45364919
vt 8.3266727e-17 0.52031586
vt 8.3266727e-17 0.55174282
vt 2.7755576e-16 0.42222222
vt 2.7755576e-16 0.97396505
vt 0.44444444 2.2204460e-16
vt 0.44444444 0.42222222
vt 0.44444444 0.45364919
vt 0.44444444 0.52031586
vt 0.44444444 0.55174282
vt 0.44444444 0.44444444
vt 0.44444444 0.97396505
vt 0.44444444 0.86666667
vt 0.44444444 0.42222222
vt 0.44444444 0.0000000e+0
vt 0.46666667 0.88888889
vt 0.46666667 0.44444444
vt 0.53333333 0.44444444
vt 0.53333333 0.88888889
vt 0.55555556 0.44444444
vt 0.55555556 0.86666667
vt 0.55555556 0.42222222
vt 0.55555556 2.7755576e-17
vt 0.55555556 0.11111111
vt 0.55555556 1.1102230e-16
vt 1.00000000 0.11111111
vt 1.00000000 0.0000000e+0
vn -0.57735027 -0.57735027 0.57735027
vn 0.57735027 -0.57735027 0.57735027
vn -0.57735027 -0.57735027 -0.57735027
vn 0.57735027 -0.57735027 -0.57735027
vn -0.73450956 0.25968834 0.62694312
vn -0.47596315 0.81251992 0.33655677
vn 0.73450956 0.25968834 0.62694312
vn 0.47596315 0.81251992 0.33655677
vn -0.47596315 0.81251992 -0.33655677
vn -0.73450956 0.25968834 -0.62694312
vn 0.47596315 0.81251992 -0.33655677
vn 0.73450956 0.25968834 -0.62694312
g cube1_cube1_auv
usemtl geometry
f 1/1/1 2/7/2 7/8/7 5/5/5
f 1/28/1 3/27/3 4/25/4 2/24/2
f 4/26/4 12/23/12 7/15/7 2/16/2
f 5/5/5 7/8/7 8/9/8 6/2/6
f 5/22/5 10/14/10 3/12/3 1/21/1
f 6/2/6 8/9/8 11/10/11 9/3/9
f 8/18/8 7/15/7 12/23/12 11/19/11
f 9/17/9 10/14/10 5/22/5 6/20/6
f 10/4/10 12/11/12 4/13/4 3/6/3
f 12/11/12 10/4/10 9/3/9 11/10/11
