# Exported from Wings 3D 1.2
mtllib pillar_simple.mtl
o cube1
#8 vertices, 6 faces
v -1.00000000 0.0000000e+0 1.00000000
v -1.00000000 8.00000000 1.00000000
v 1.00000000 8.00000000 1.00000000
v 1.00000000 0.0000000e+0 1.00000000
v -1.00000000 0.0000000e+0 -1.00000000
v -1.00000000 8.00000000 -1.00000000
v 1.00000000 8.00000000 -1.00000000
v 1.00000000 0.0000000e+0 -1.00000000
vt -1.1102230e-16 0.0000000e+0
vt 0.0000000e+0 1.00000000
vt 2.7755576e-17 0.80000000
vt 2.4980018e-16 1.00000000
vt 0.20000000 0.0000000e+0
vt 0.20000000 1.00000000
vt 0.20000000 0.80000000
vt 0.20000000 1.00000000
vt 0.20000000 0.80000000
vt 0.20000000 1.00000000
vt 0.20000000 1.00000000
vt 0.20000000 0.0000000e+0
vt 0.40000000 0.80000000
vt 0.40000000 1.00000000
vt 0.40000000 0.0000000e+0
vt 0.40000000 1.00000000
vt 0.40000000 0.0000000e+0
vt 0.40000000 1.00000000
vt 0.60000000 0.0000000e+0
vt 0.60000000 1.00000000
vt 0.60000000 1.00000000
vt 0.80000000 0.0000000e+0
vt 0.80000000 1.00000000
vn -0.57735027 -0.57735027 0.57735027
vn -0.57735027 0.57735027 0.57735027
vn 0.57735027 0.57735027 0.57735027
vn 0.57735027 -0.57735027 0.57735027
vn -0.57735027 -0.57735027 -0.57735027
vn -0.57735027 0.57735027 -0.57735027
vn 0.57735027 0.57735027 -0.57735027
vn 0.57735027 -0.57735027 -0.57735027
g cube1_cube1_auv
usemtl cube1_auv
s 1
f 1/1/1 4/5/4 3/10/3 2/4/2
f 1/13/1 5/14/5 8/8/8 4/9/4
f 2/23/2 6/20/6 5/19/5 1/22/1
f 3/7/3 7/6/7 6/2/6 2/3/2
f 4/12/4 8/17/8 7/16/7 3/11/3
f 6/21/6 7/18/7 8/15/8 5/19/5
