# Exported from Wings 3D 1.0.2
newmtl cone1_auv
Ns 100.0
d 1.0
illum 2
Kd 1.0 1.0 1.0
Ka 1.0 1.0 1.0
Ks 1.0 1.0 1.0
Ke 0.0 0.0 0.0
map_Kd cone1_auv.tga

newmtl sphere2_auv
Ns 100.0
d 1.0
illum 2
Kd 1.0 1.0 1.0
Ka 1.0 1.0 1.0
Ks 1.0 1.0 1.0
Ke 1.0 1.0 1.0
map_Kd cone1_auv.tga

